{
  "kind": "collectionType",
  "collectionName": "ventas",
  "info": {
    "name": "Venta",
    "description": ""
  },
  "options": {
    "increments": true,
    "timestamps": true,
    "draftAndPublish": true
  },
  "pluginOptions": {},
  "attributes": {
    "fechaRealizada": {
      "type": "datetime",
      "required": true
    },
    "ventasproductos": {
      "collection": "ventasproductos",
      "via": "venta"
    }
  }
}
